<svg width="59" height="69" viewBox="0 0 59 69" fill="none" xmlns="http://www.w3.org/2000/svg">
<path d="M45.4642 44.3955L13.6642 67.6954C9.92418 69.5854 0.904167 63.1854 0.774167 58.5454L0.00417758 31.3754C-0.125822 26.7454 2.79418 21.4454 6.53418 19.5554L44.2442 0.425451C47.9842 -1.46455 57.6142 3.28544 57.7442 7.91544L52.0142 32.5654C52.1442 37.2054 49.2242 42.4954 45.4642 44.3955Z" fill="#FFB901"/>
<path d="M52.1243 48.2454L14.4043 67.3655C10.6743 69.2655 7.53429 67.0355 7.40429 62.3655L6.6343 35.1954C6.5043 30.5654 9.4243 25.2654 13.1643 23.3754L50.8743 4.25544C54.6143 2.35544 57.7543 4.58544 57.8743 9.25544L58.6343 36.4255C58.7843 41.0555 55.8543 46.3454 52.1243 48.2454Z" fill="#FFB901"/>
<path d="M49.7944 46.7554L16.5844 63.5954C13.2944 65.2654 10.5344 63.3054 10.4244 59.2254L9.74437 35.3054C9.63437 31.2154 12.2044 26.5554 15.4944 24.8854L48.6944 8.05541C51.9844 6.38541 54.6944 8.34543 54.8644 12.4254L55.5444 36.3454C55.6544 40.4254 53.0844 45.0954 49.7944 46.7554Z" fill="#FF9900"/>
<path d="M49.7944 46.7554L16.5844 63.5954C13.2944 65.2654 10.5344 63.3054 10.4244 59.2254L9.74437 35.3054C9.63437 31.2154 12.2044 26.5554 15.4944 24.8854L48.6944 8.05541C51.9844 6.38541 54.6944 8.34543 54.8644 12.4254L55.5444 36.3454C55.6544 40.4254 53.0844 45.0954 49.7944 46.7554Z" stroke="black" stroke-miterlimit="10"/>
<path d="M18.0742 37.2654L34.1142 38.2254L48.6242 14.9054L36.3642 46.5654L18.0742 37.2654Z" fill="white"/>
</svg>
