<svg width="24" height="24" viewBox="0 0 24 24" fill="none" xmlns="http://www.w3.org/2000/svg">
<path d="M13.1727 12L8.22266 7.04999L9.63666 5.63599L16.0007 12L9.63666 18.364L8.22266 16.95L13.1727 12Z" fill="#CFCFCF"/>
</svg>
