<svg width="1086" height="568" viewBox="0 0 1086 568" fill="none" xmlns="http://www.w3.org/2000/svg">
<g opacity="0.5" filter="url(#filter0_f_0_3)">
<ellipse cx="543" cy="284" rx="409" ry="150" fill="#FFB901" fill-opacity="0.6"/>
</g>
<defs>
<filter id="filter0_f_0_3" x="0.666656" y="0.666656" width="1084.67" height="566.667" filterUnits="userSpaceOnUse" color-interpolation-filters="sRGB">
<feFlood flood-opacity="0" result="BackgroundImageFix"/>
<feBlend mode="normal" in="SourceGraphic" in2="BackgroundImageFix" result="shape"/>
<feGaussianBlur stdDeviation="66.6667" result="effect1_foregroundBlur_0_3"/>
</filter>
</defs>
</svg>
