<svg width="144" height="43" viewBox="0 0 144 43" fill="none" xmlns="http://www.w3.org/2000/svg">
<path d="M42.0434 0H0.955408C0.702014 0 0.458987 0.100591 0.279884 0.279887C0.100588 0.45899 0 0.702016 0 0.955602V42.0436C0 42.297 0.100588 42.54 0.279884 42.7192C0.458987 42.8984 0.702014 42.999 0.955408 42.999H42.0434C42.297 42.999 42.54 42.8984 42.7192 42.7192C42.8984 42.54 42.999 42.297 42.999 42.0436V0.955602C42.999 0.702016 42.8984 0.45899 42.7192 0.279887C42.54 0.100591 42.297 0 42.0434 0ZM28.666 27.7105C28.666 27.9639 28.5654 28.207 28.3861 28.3863C28.207 28.5654 27.9639 28.6662 27.7106 28.6662H15.2885C15.0351 28.6662 14.7921 28.5654 14.6128 28.3863C14.4337 28.207 14.3331 27.9639 14.3331 27.7105V15.2885C14.3331 15.0351 14.4337 14.7921 14.6128 14.613C14.7921 14.4337 15.0351 14.3331 15.2885 14.3331H27.7106C27.9639 14.3331 28.207 14.4337 28.3861 14.613C28.5654 14.7921 28.666 15.0351 28.666 15.2885V27.7105Z" fill="white"/>
<path d="M128.065 14.3346H115.644C115.116 14.3346 114.688 14.7623 114.688 15.29V27.7121C114.688 28.2398 115.116 28.6677 115.644 28.6677H128.065C128.593 28.6677 129.021 28.2398 129.021 27.7121V15.29C129.021 14.7623 128.593 14.3346 128.065 14.3346Z" fill="white"/>
<path d="M113.727 0.00115967H101.305C100.777 0.00115967 100.349 0.428857 100.349 0.956761V13.3786C100.349 13.9063 100.777 14.3342 101.305 14.3342H113.727C114.255 14.3342 114.682 13.9063 114.682 13.3786V0.956761C114.682 0.428857 114.255 0.00115967 113.727 0.00115967Z" fill="white"/>
<path d="M142.393 0.00115967H129.971C129.443 0.00115967 129.015 0.428857 129.015 0.956761V13.3786C129.015 13.9063 129.443 14.3342 129.971 14.3342H142.393C142.921 14.3342 143.348 13.9063 143.348 13.3786V0.956761C143.348 0.428857 142.921 0.00115967 142.393 0.00115967Z" fill="white"/>
<path d="M113.727 28.6669H101.305C100.777 28.6669 100.349 29.0946 100.349 29.6223V42.0443C100.349 42.5721 100.777 43 101.305 43H113.727C114.255 43 114.682 42.5721 114.682 42.0443V29.6223C114.682 29.0946 114.255 28.6669 113.727 28.6669Z" fill="white"/>
<path d="M142.393 28.6669H129.971C129.443 28.6669 129.015 29.0946 129.015 29.6223V42.0443C129.015 42.5721 129.443 43 129.971 43H142.393C142.921 43 143.348 42.5721 143.348 42.0443V29.6223C143.348 29.0946 142.921 28.6669 142.393 28.6669Z" fill="white"/>
<path d="M92.209 0.00115967H79.7872C79.2594 0.00115967 78.8315 0.428857 78.8315 0.956761V13.3786C78.8315 13.9063 79.2594 14.3342 79.7872 14.3342H92.209C92.7367 14.3342 93.1646 13.9063 93.1646 13.3786V0.956761C93.1646 0.428857 92.7367 0.00115967 92.209 0.00115967Z" fill="white"/>
<path d="M92.209 28.6669H79.7872C79.2594 28.6669 78.8315 29.0946 78.8315 29.6223V42.0443C78.8315 42.5721 79.2594 43 79.7872 43H92.209C92.7367 43 93.1646 42.5721 93.1646 42.0443V29.6223C93.1646 29.0946 92.7367 28.6669 92.209 28.6669Z" fill="white"/>
<path d="M78.8317 15.2777C78.8317 15.0243 78.7309 14.7813 78.5518 14.6022C78.3725 14.4229 78.1295 14.3223 77.8761 14.3223H64.4986V0.955602C64.4986 0.702016 64.3978 0.45899 64.2187 0.279887C64.0394 0.100591 63.7964 0 63.543 0H51.1211C50.8675 0 50.6245 0.100591 50.4454 0.279887C50.2661 0.45899 50.1655 0.702016 50.1655 0.955602V42.0221C50.1655 42.2755 50.2661 42.5185 50.4454 42.6977C50.6245 42.8769 50.8675 42.9775 51.1211 42.9775H63.543C63.7964 42.9775 64.0394 42.8769 64.2187 42.6977C64.3978 42.5185 64.4986 42.2755 64.4986 42.0221V28.6554H77.8761C78.1295 28.6554 78.3725 28.5546 78.5518 28.3755C78.7309 28.1962 78.8317 27.9532 78.8317 27.6998V15.2777Z" fill="white"/>
</svg>
