<svg width="32" height="90" viewBox="0 0 32 90" fill="none" xmlns="http://www.w3.org/2000/svg">
<circle cx="16" cy="16" r="10" fill="#FF9901"/>
<circle cx="16" cy="16" r="15" stroke="#FF9901" stroke-width="2"/>
<rect x="17" y="30" width="60" height="2" transform="rotate(90 17 30)" fill="url(#paint0_linear_40_5494)"/>
<defs>
<linearGradient id="paint0_linear_40_5494" x1="17" y1="31.0007" x2="77" y2="31.0007" gradientUnits="userSpaceOnUse">
<stop stop-color="#FF9901"/>
<stop offset="1" stop-color="#FF9901" stop-opacity="0"/>
</linearGradient>
</defs>
</svg>
