<svg width="100" height="2" viewBox="0 0 100 2" fill="none" xmlns="http://www.w3.org/2000/svg">
<rect width="100" height="2" fill="url(#paint0_linear_40_4526)"/>
<defs>
<linearGradient id="paint0_linear_40_4526" x1="4.78667e-07" y1="1.00069" x2="100" y2="1.00069" gradientUnits="userSpaceOnUse">
<stop stop-color="#FF9901"/>
<stop offset="1" stop-color="#FF9901" stop-opacity="0"/>
</linearGradient>
</defs>
</svg>
