<svg width="2" height="60" viewBox="0 0 2 60" fill="none" xmlns="http://www.w3.org/2000/svg">
<rect x="2" width="60" height="2" transform="rotate(90 2 0)" fill="url(#paint0_linear_46_7553)"/>
<defs>
<linearGradient id="paint0_linear_46_7553" x1="2" y1="1.00069" x2="62" y2="1.00069" gradientUnits="userSpaceOnUse">
<stop stop-color="#FF9901"/>
<stop offset="1" stop-color="#FF9901" stop-opacity="0"/>
</linearGradient>
</defs>
</svg>
